{
    "colors": {
        "primary": {
            "main": "#2196f3",
            "light": "#6ec6ff",
            "dark": "#0069c0",
            "contrast": "#FFFFFF"
        },
        "secondary": {
            "main": "#e10050",
            "light": "#ff557c",
            "dark": "#a80029",
            "contrast": "#FFFFFF"
        },
        "status": {
            "error": "#F44336",
            "danger": "#FF9800",
            "success": "#4CAF50"
        }
    },
    "typography": {
        "button": {
            "fontWeight": 400,
            "textTransform": "capitalize"
        }
    }
}
